Lab #1 - Gapminder Dataset
…
What are the names of each of the columns, and what information does each contain?

What is the source of the dataset?

Solution to Exercise # 1

Write your answer here.  

What is a tibble?

Lets see what happens if we display the gapminder dataset:

gapminder

# A tibble: 1,704 x 6
   country     continent  year lifeExp      pop gdpPercap
   <fct>       <fct>     <int>   <dbl>    <int>     <dbl>
 1 Afghanistan Asia       1952    28.8  8425333      779.
 2 Afghanistan Asia       1957    30.3  9240934      821.
 3 Afghanistan Asia       1962    32.0 10267083      853.
 4 Afghanistan Asia       1967    34.0 11537966      836.
 5 Afghanistan Asia       1972    36.1 13079460      740.
 6 Afghanistan Asia       1977    38.4 14880372      786.
 7 Afghanistan Asia       1982    39.9 12881816      978.
 8 Afghanistan Asia       1987    40.8 13867957      852.
 9 Afghanistan Asia       1992    41.7 16317921      649.
10 Afghanistan Asia       1997    41.8 22227415      635.
# ... with 1,694 more rows

If youre used to working with dataframes in R, this may surprise you. Rather than filling up the screen with lots of useless information, R shows us a helpful summary of the information contained in gapminder. This is because gapminder is not a dataframe; its a tibble, often abbreviated tbl. For the moment, all you need to know about tibbles is that they are souped up versions of R dataframes that are designed to work seamlessly with dplyr. (If you want to learn more, see the chapter entitled Tibbles in R for Data Science) But what exactly is dplyr?

What is dplyr?

The dplyr package provides a number of powerful but easy-to-use tools for data manipulation in R. A good reference is the chapter entitled Data Transformation in R for Data Science. Well be making heavy use of dplyr throughout the semester. Rather than trying to explain everything in advance, lets just dive right in.

Filter Rows with filter

Lets run the following command in R and see what happens:

gapminder %>% filter(year == 2007)

# A tibble: 142 x 6
   country     continent  year lifeExp       pop gdpPercap
   <fct>       <fct>     <int>   <dbl>     <int>     <dbl>
 1 Afghanistan Asia       2007    43.8  31889923      975.
 2 Albania     Europe     2007    76.4   3600523     5937.
 3 Algeria     Africa     2007    72.3  33333216     6223.
 4 Angola      Africa     2007    42.7  12420476     4797.
 5 Argentina   Americas   2007    75.3  40301927    12779.
 6 Australia   Oceania    2007    81.2  20434176    34435.
 7 Austria     Europe     2007    79.8   8199783    36126.
 8 Bahrain     Asia       2007    75.6    708573    29796.
 9 Bangladesh  Asia       2007    64.1 150448339     1391.
10 Belgium     Europe     2007    79.4  10392226    33693.
# ... with 132 more rows

Compare the results of running this command to what we got when we typed gapminder into the console above. Rather than displaying the whole dataset, now R is only showing us the 142 rows for which the column year has a value of 2007.

So how does this work? The %>% symbol is called a pipe. Pipes play very nicely with dplyr and make our code very easy to understand. The tibble gapminder is being piped into the function filter(). The argument year == 2007 tells filter() that it should find all the rows such that the logical condition year == 2007 is TRUE.

Oh no! Have we accidentally deleted all of the other rows of gapminder? Nope: we havent made any changes to gapminder at all. If you dont believe me try entering gapminder at the console. All that this command does is display a subset of gapminder. If we wanted to store the result of running this command, wed need to assign it to a variable, for example

gapminder2007 <- gapminder %>% filter(year == 2007)
gapminder2007

# A tibble: 142 x 6
   country     continent  year lifeExp       pop gdpPercap
   <fct>       <fct>     <int>   <dbl>     <int>     <dbl>
 1 Afghanistan Asia       2007    43.8  31889923      975.
 2 Albania     Europe     2007    76.4   3600523     5937.
 3 Algeria     Africa     2007    72.3  33333216     6223.
 4 Angola      Africa     2007    42.7  12420476     4797.
 5 Argentina   Americas   2007    75.3  40301927    12779.
 6 Australia   Oceania    2007    81.2  20434176    34435.
 7 Austria     Europe     2007    79.8   8199783    36126.
 8 Bahrain     Asia       2007    75.6    708573    29796.
 9 Bangladesh  Asia       2007    64.1 150448339     1391.
10 Belgium     Europe     2007    79.4  10392226    33693.
# ... with 132 more rows
…
If you instead try to choose the subset with year equal to 2005, something will go wrong. Try it and explain what happens and why.

Store the data for Asian countries in a tibble called gapminder_asia. Display this tibble.

Solution to Exercise #2

Write your answer and code here

The first assigns the value 3 to the variable x; the second tests whether x is equal to 3 and returns either TRUE or FALSE.

Use the following code:

gapminder %>% filter(year == 2002)

# A tibble: 142 x 6
   country     continent  year lifeExp       pop gdpPercap
   <fct>       <fct>     <int>   <dbl>     <int>     <dbl>
 1 Afghanistan Asia       2002    42.1  25268405      727.
 2 Albania     Europe     2002    75.7   3508512     4604.
 3 Algeria     Africa     2002    71.0  31287142     5288.
 4 Angola      Africa     2002    41.0  10866106     2773.
 5 Argentina   Americas   2002    74.3  38331121     8798.
 6 Australia   Oceania    2002    80.4  19546792    30688.
 7 Austria     Europe     2002    79.0   8148312    32418.
 8 Bahrain     Asia       2002    74.8    656397    23404.
 9 Bangladesh  Asia       2002    62.0 135656790     1136.
10 Belgium     Europe     2002    78.3  10311970    30486.
# ... with 132 more rows

If you go back to the help file for gapminder youll see that it only contains data for every fifth year. The year 2005 isnt in our dataset so dplyr will display an empty tibble:

gapminder %>% filter(year == 2005)

# A tibble: 0 x 6
# ... with 6 variables: country <fct>, continent <fct>, year <int>,
#   lifeExp <dbl>, pop <int>, gdpPercap <dbl>

Use the following code:

gapminder_asia <- gapminder %>% filter(continent == 'Asia')
gapminder_asia

# A tibble: 396 x 6
   country     continent  year lifeExp      pop gdpPercap
   <fct>       <fct>     <int>   <dbl>    <int>     <dbl>
 1 Afghanistan Asia       1952    28.8  8425333      779.
 2 Afghanistan Asia       1957    30.3  9240934      821.
 3 Afghanistan Asia       1962    32.0 10267083      853.
 4 Afghanistan Asia       1967    34.0 11537966      836.
 5 Afghanistan Asia       1972    36.1 13079460      740.
 6 Afghanistan Asia       1977    38.4 14880372      786.
 7 Afghanistan Asia       1982    39.9 12881816      978.
 8 Afghanistan Asia       1987    40.8 13867957      852.
 9 Afghanistan Asia       1992    41.7 16317921      649.
10 Afghanistan Asia       1997    41.8 22227415      635.
# ... with 386 more rows
…
gapminder %>% filter(year == 1977, country == 'Brazil')

# A tibble: 1 x 6
  country continent  year lifeExp       pop gdpPercap
  <fct>   <fct>     <int>   <dbl>     <int>     <dbl>
1 Brazil  Americas   1977    61.5 114313951     6660.

Sort data with arrange

Suppose we wanted to sort gapminder by gdpPercap. To do this we can use the arrange command along with the pipe %>% as follows:

gapminder %>% arrange(gdpPercap)

# A tibble: 1,704 x 6
   country          continent  year lifeExp      pop gdpPercap
   <fct>            <fct>     <int>   <dbl>    <int>     <dbl>
 1 Congo, Dem. Rep. Africa     2002    45.0 55379852      241.
 2 Congo, Dem. Rep. Africa     2007    46.5 64606759      278.
 3 Lesotho          Africa     1952    42.1   748747      299.
 4 Guinea-Bissau    Africa     1952    32.5   580653      300.
 5 Congo, Dem. Rep. Africa     1997    42.6 47798986      312.
 6 Eritrea          Africa     1952    35.9  1438760      329.
 7 Myanmar          Asia       1952    36.3 20092996      331 
 8 Lesotho          Africa     1957    45.0   813338      336.
 9 Burundi          Africa     1952    39.0  2445618      339.
10 Eritrea          Africa     1957    38.0  1542611      344.
# ... with 1,694 more rows

The logic is very similar to what we saw above for filter. Here, we pipe the tibble gapminder into the function arrange(). The argument gdpPercap tells arrange() that we want to sort by GDP per capita. Note that by default arrange() sorts in ascending order. If we want to sort in descending order, we use the function desc() as follows:

gapminder %>% arrange(desc(gdpPercap))

# A tibble: 1,704 x 6
   country   continent  year lifeExp     pop gdpPercap
   <fct>     <fct>     <int>   <dbl>   <int>     <dbl>
 1 Kuwait    Asia       1957    58.0  212846   113523.
 2 Kuwait    Asia       1972    67.7  841934   109348.
 3 Kuwait    Asia       1952    55.6  160000   108382.
 4 Kuwait    Asia       1962    60.5  358266    95458.
 5 Kuwait    Asia       1967    64.6  575003    80895.
 6 Kuwait    Asia       1977    69.3 1140357    59265.
 7 Norway    Europe     2007    80.2 4627926    49357.
 8 Kuwait    Asia       2007    77.6 2505559    47307.
 9 Singapore Asia       2007    80.0 4553009    47143.
10 Norway    Europe     2002    79.0 4535591    44684.
# ... with 1,694 more rows
Exercise #4

What is the lowest life expectancy in the gapminder dataset? Which country and year does it correspond to?

What is the highest life expectancy in the gapminder dataset? Which country and year does it correspond to?

Solution to Exercise #4

Write your code and solutions here

The lowest life expectancy was Rwanda in 1992: 23.6 years at birth.

gapminder %>% arrange(lifeExp)

# A tibble: 1,704 x 6
   country      continent  year lifeExp     pop gdpPercap
   <fct>        <fct>     <int>   <dbl>   <int>     <dbl>
 1 Rwanda       Africa     1992    23.6 7290203      737.
 2 Afghanistan  Asia       1952    28.8 8425333      779.
 3 Gambia       Africa     1952    30    284320      485.
 4 Angola       Africa     1952    30.0 4232095     3521.
 5 Sierra Leone Africa     1952    30.3 2143249      880.
 6 Afghanistan  Asia       1957    30.3 9240934      821.
 7 Cambodia     Asia       1977    31.2 6978607      525.
 8 Mozambique   Africa     1952    31.3 6446316      469.
 9 Sierra Leone Africa     1957    31.6 2295678     1004.
10 Burkina Faso Africa     1952    32.0 4469979      543.
# ... with 1,694 more rows

The highest life expectancy was in 2007 in Japan: 82.6 years at birth.

gapminder %>% arrange(desc(lifeExp))

# A tibble: 1,704 x 6
   country          continent  year lifeExp       pop gdpPercap
   <fct>            <fct>     <int>   <dbl>     <int>     <dbl>
 1 Japan            Asia       2007    82.6 127467972    31656.
 2 Hong Kong, China Asia       2007    82.2   6980412    39725.
 3 Japan            Asia       2002    82   127065841    28605.
 4 Iceland          Europe     2007    81.8    301931    36181.
 5 Switzerland      Europe     2007    81.7   7554661    37506.
 6 Hong Kong, China Asia       2002    81.5   6762476    30209.
 7 Australia        Oceania    2007    81.2  20434176    34435.
 8 Spain            Europe     2007    80.9  40448191    28821.
 9 Sweden           Europe     2007    80.9   9031088    33860.
10 Israel           Asia       2007    80.7   6426679    25523.
# ... with 1,694 more rows
…
Write your code and solutions here

Use the following code:

z <- c(4, 1, 5, NA, 3)
z %>% var(na.rm = TRUE)

[1] 2.916667

Use the following code:

arrange(gapminder,lifeExp)

# A tibble: 1,704 x 6
   country      continent  year lifeExp     pop gdpPercap
   <fct>        <fct>     <int>   <dbl>   <int>     <dbl>
 1 Rwanda       Africa     1992    23.6 7290203      737.
 2 Afghanistan  Asia       1952    28.8 8425333      779.
 3 Gambia       Africa     1952    30    284320      485.
 4 Angola       Africa     1952    30.0 4232095     3521.
 5 Sierra Leone Africa     1952    30.3 2143249      880.
 6 Afghanistan  Asia       1957    30.3 9240934      821.
 7 Cambodia     Asia       1977    31.2 6978607      525.
 8 Mozambique   Africa     1952    31.3 6446316      469.
 9 Sierra Leone Africa     1957    31.6 2295678     1004.
10 Burkina Faso Africa     1952    32.0 4469979      543.
# ... with 1,694 more rows

arrange(gapminder, desc(lifeExp))

# A tibble: 1,704 x 6
   country          continent  year lifeExp       pop gdpPercap
   <fct>            <fct>     <int>   <dbl>     <int>     <dbl>
 1 Japan            Asia       2007    82.6 127467972    31656.
 2 Hong Kong, China Asia       2007    82.2   6980412    39725.
 3 Japan            Asia       2002    82   127065841    28605.
 4 Iceland          Europe     2007    81.8    301931    36181.
 5 Switzerland      Europe     2007    81.7   7554661    37506.
 6 Hong Kong, China Asia       2002    81.5   6762476    30209.
 7 Australia        Oceania    2007    81.2  20434176    34435.
 8 Spain            Europe     2007    80.9  40448191    28821.
 9 Sweden           Europe     2007    80.9   9031088    33860.
10 Israel           Asia       2007    80.7   6426679    25523.
# ... with 1,694 more rows

Chaining commands

In the examples weve looked at so far, the pipe doesnt seem all that useful: its just an alternative way of specifying the first argument to a function. The true power and convenience of the pipe only becomes apparent we need to chain a series of commands together. For example, suppose we wanted to display the 1952 data from gapminder sorted by gdpPercap in descending order. Using the pipe, this is easy:

gapminder %>% 
  filter(year == 1952) %>% 
  arrange(desc(gdpPercap))

# A tibble: 142 x 6
   country        continent  year lifeExp       pop gdpPercap
   <fct>          <fct>     <int>   <dbl>     <int>     <dbl>
 1 Kuwait         Asia       1952    55.6    160000   108382.
 2 Switzerland    Europe     1952    69.6   4815000    14734.
 3 United States  Americas   1952    68.4 157553000    13990.
 4 Canada         Americas   1952    68.8  14785584    11367.
 5 New Zealand    Oceania    1952    69.4   1994794    10557.
 6 Norway         Europe     1952    72.7   3327728    10095.
 7 Australia      Oceania    1952    69.1   8691212    10040.
 8 United Kingdom Europe     1952    69.2  50430000     9980.
 9 Bahrain        Asia       1952    50.9    120447     9867.
10 Denmark        Europe     1952    70.8   4334000     9692.
# ... with 132 more rows

Notice how I split the commands across multiple lines. This is good practice: it makes your code much easier to read. So whats happening when we chain commands in this way? The first step in the chain gapminder %>% filter(year == 1952) returns a tibble: the subset of gapminder for which year is 1952. The next step %>% arrange(gdpPercap) pipes this new tibble into the function arrange(), giving us the desired result. I hope you agree with me that this is pretty intuitive: even if we didnt know anything about dplyr we could almost figure out what this code is supposed to do. In stark contrast, lets look at the code wed have to use if we wanted to accomplish the same task without using the pipe:

arrange(filter(gapminder, year == 1952), desc(gdpPercap))

# A tibble: 142 x 6
   country        continent  year lifeExp       pop gdpPercap
   <fct>          <fct>     <int>   <dbl>     <int>     <dbl>
 1 Kuwait         Asia       1952    55.6    160000   108382.
 2 Switzerland    Europe     1952    69.6   4815000    14734.
 3 United States  Americas   1952    68.4 157553000    13990.
 4 Canada         Americas   1952    68.8  14785584    11367.
 5 New Zealand    Oceania    1952    69.4   1994794    10557.
 6 Norway         Europe     1952    72.7   3327728    10095.
 7 Australia      Oceania    1952    69.1   8691212    10040.
 8 United Kingdom Europe     1952    69.2  50430000     9980.
 9 Bahrain        Asia       1952    50.9    120447     9867.
10 Denmark        Europe     1952    70.8   4334000     9692.
# ... with 132 more rows
…
What was the most populous European country in 1992? Write appropriate dplyr code using the pipe to display the information you need to answer this question.

Re-write your code from part 1. without using the pipe.

Solution to Exercise #6

Write your code and solutions here

The most populous European country in 1992 was Germany.

gapminder %>%
  filter(year == 1992, continent == 'Europe') %>%
  arrange(desc(pop))

# A tibble: 30 x 6
   country        continent  year lifeExp      pop gdpPercap
   <fct>          <fct>     <int>   <dbl>    <int>     <dbl>
 1 Germany        Europe     1992    76.1 80597764    26505.
 2 Turkey         Europe     1992    66.1 58179144     5678.
 3 United Kingdom Europe     1992    76.4 57866349    22705.
 4 France         Europe     1992    77.5 57374179    24704.
 5 Italy          Europe     1992    77.4 56840847    22014.
 6 Spain          Europe     1992    77.6 39549438    18603.
 7 Poland         Europe     1992    71.0 38370697     7739.
 8 Romania        Europe     1992    69.4 22797027     6598.
 9 Netherlands    Europe     1992    77.4 15174244    26791.
10 Hungary        Europe     1992    69.2 10348684    10536.
# ... with 20 more rows

Use the following code:

arrange(filter(gapminder, year == 1992, continent == 'Europe'), desc(pop))

# A tibble: 30 x 6
   country        continent  year lifeExp      pop gdpPercap
   <fct>          <fct>     <int>   <dbl>    <int>     <dbl>
 1 Germany        Europe     1992    76.1 80597764    26505.
 2 Turkey         Europe     1992    66.1 58179144     5678.
 3 United Kingdom Europe     1992    76.4 57866349    22705.
 4 France         Europe     1992    77.5 57374179    24704.
 5 Italy          Europe     1992    77.4 56840847    22014.
 6 Spain          Europe     1992    77.6 39549438    18603.
 7 Poland         Europe     1992    71.0 38370697     7739.
 8 Romania        Europe     1992    69.4 22797027     6598.
 9 Netherlands    Europe     1992    77.4 15174244    26791.
10 Hungary        Europe     1992    69.2 10348684    10536.
# ... with 20 more rows

Change an existing variable or create a new one with mutate

Its a little hard to read the column pop in gapminder since there are so many digits. Suppose that, instead of raw population, we wanted to display population in millions. This requires us to pop by 1000000, which we can do using the function mutate() from dplyr as follows:

gapminder %>% 
  mutate(pop = pop / 1000000)

# A tibble: 1,704 x 6
   country     continent  year lifeExp   pop gdpPercap
   <fct>       <fct>     <int>   <dbl> <dbl>     <dbl>
 1 Afghanistan Asia       1952    28.8  8.43      779.
 2 Afghanistan Asia       1957    30.3  9.24      821.
 3 Afghanistan Asia       1962    32.0 10.3       853.
 4 Afghanistan Asia       1967    34.0 11.5       836.
 5 Afghanistan Asia       1972    36.1 13.1       740.
 6 Afghanistan Asia       1977    38.4 14.9       786.
 7 Afghanistan Asia       1982    39.9 12.9       978.
 8 Afghanistan Asia       1987    40.8 13.9       852.
 9 Afghanistan Asia       1992    41.7 16.3       649.
10 Afghanistan Asia       1997    41.8 22.2       635.
# ... with 1,694 more rows
…
