Lab #2 - Gapminder Dataset
…
dplyr verbs

For the next few sections well take a short break from ggplot2 and turn our attention to dplyr. In lab #1 we learned about the pipe, %>%, and two dplyr functions: filter() and arrange(). In the parlance of the dplyr documentation, these are called verbs. In dplyr we use %>% to combine these verbs in various ways to manipulate a tibble. In this section and the following two, well learn three more dplyr verbs: select, summarize and group_by.

The select verb

We use the select verb to select columns. Using select we could do this as follows:

gapminder %>% select(pop)

# A tibble: 1,704 x 1
        pop
      <int>
 1  8425333
 2  9240934
 3 10267083
 4 11537966
 5 13079460
 6 14880372
 7 12881816
 8 13867957
 9 16317921
10 22227415
# ... with 1,694 more rows

To display only pop, country, and year, use the following:

gapminder %>% select(pop, country, year)

# A tibble: 1,704 x 3
        pop country      year
      <int> <fct>       <int>
 1  8425333 Afghanistan  1952
 2  9240934 Afghanistan  1957
 3 10267083 Afghanistan  1962
 4 11537966 Afghanistan  1967
 5 13079460 Afghanistan  1972
 6 14880372 Afghanistan  1977
 7 12881816 Afghanistan  1982
 8 13867957 Afghanistan  1987
 9 16317921 Afghanistan  1992
10 22227415 Afghanistan  1997
# ... with 1,694 more rows

Now suppose that we wanted to select every column except pop. Heres one way to do it:

gapminder %>% select(country, continent, year, lifeExp, gdpPercap)

# A tibble: 1,704 x 5
   country     continent  year lifeExp gdpPercap
   <fct>       <fct>     <int>   <dbl>     <dbl>
 1 Afghanistan Asia       1952    28.8      779.
 2 Afghanistan Asia       1957    30.3      821.
 3 Afghanistan Asia       1962    32.0      853.
 4 Afghanistan Asia       1967    34.0      836.
 5 Afghanistan Asia       1972    36.1      740.
 6 Afghanistan Asia       1977    38.4      786.
 7 Afghanistan Asia       1982    39.9      978.
 8 Afghanistan Asia       1987    40.8      852.
 9 Afghanistan Asia       1992    41.7      649.
10 Afghanistan Asia       1997    41.8      635.
# ... with 1,694 more rows

but that takes a lot of typing! If there were more than a handful of columns in our tibble it would be very difficult to deselect a column in this way. Fortunately theres a shortcut: use the minus sign

gapminder %>% select(-pop)

# A tibble: 1,704 x 5
   country     continent  year lifeExp gdpPercap
   <fct>       <fct>     <int>   <dbl>     <dbl>
 1 Afghanistan Asia       1952    28.8      779.
 2 Afghanistan Asia       1957    30.3      821.
 3 Afghanistan Asia       1962    32.0      853.
 4 Afghanistan Asia       1967    34.0      836.
 5 Afghanistan Asia       1972    36.1      740.
 6 Afghanistan Asia       1977    38.4      786.
 7 Afghanistan Asia       1982    39.9      978.
 8 Afghanistan Asia       1987    40.8      852.
 9 Afghanistan Asia       1992    41.7      649.
10 Afghanistan Asia       1997    41.8      635.
# ... with 1,694 more rows

Just as we could when selecting, we can deselect multiple columns by separating their names with a comma:

gapminder %>% select(-pop, -year)

# A tibble: 1,704 x 4
   country     continent lifeExp gdpPercap
   <fct>       <fct>       <dbl>     <dbl>
 1 Afghanistan Asia         28.8      779.
 2 Afghanistan Asia         30.3      821.
 3 Afghanistan Asia         32.0      853.
 4 Afghanistan Asia         34.0      836.
 5 Afghanistan Asia         36.1      740.
 6 Afghanistan Asia         38.4      786.
 7 Afghanistan Asia         39.9      978.
 8 Afghanistan Asia         40.8      852.
 9 Afghanistan Asia         41.7      649.
10 Afghanistan Asia         41.8      635.
# ... with 1,694 more rows
…
Exercise #2

Select only the columns year, lifeExp, and country in gapminder.

Select all the columns except year, lifeExp, and country in gapminder.

Solution to Exercise #2

Write your code and solutions here

Use the following:

gapminder %>% select(year, lifeExp, country)

# A tibble: 1,704 x 3
    year lifeExp country    
   <int>   <dbl> <fct>      
 1  1952    28.8 Afghanistan
 2  1957    30.3 Afghanistan
 3  1962    32.0 Afghanistan
 4  1967    34.0 Afghanistan
 5  1972    36.1 Afghanistan
 6  1977    38.4 Afghanistan
 7  1982    39.9 Afghanistan
 8  1987    40.8 Afghanistan
 9  1992    41.7 Afghanistan
10  1997    41.8 Afghanistan
# ... with 1,694 more rows

Use the following:

gapminder %>% select(-year, -lifeExp, -country)

# A tibble: 1,704 x 3
   continent      pop gdpPercap
   <fct>        <int>     <dbl>
 1 Asia       8425333      779.
 2 Asia       9240934      821.
 3 Asia      10267083      853.
 4 Asia      11537966      836.
 5 Asia      13079460      740.
 6 Asia      14880372      786.
 7 Asia      12881816      978.
 8 Asia      13867957      852.
 9 Asia      16317921      649.
10 Asia      22227415      635.
# ... with 1,694 more rows
…
We can also use group_by to subset over multiple variables at once. For example, to calculate mean life expectancy and total population in each continent separately for every year, we can use the following code:

gapminder %>% 
  group_by(year, continent) %>%
  summarize(meanPop = mean(pop) / 1000000, meanLifeExp = mean(lifeExp))

# A tibble: 60 x 4
# Groups:   year [?]
    year continent meanPop meanLifeExp
   <int> <fct>       <dbl>       <dbl>
 1  1952 Africa       4.57        39.1
 2  1952 Americas    13.8         53.3
 3  1952 Asia        42.3         46.3
 4  1952 Europe      13.9         64.4
 5  1952 Oceania      5.34        69.3
 6  1957 Africa       5.09        41.3
 7  1957 Americas    15.5         56.0
 8  1957 Asia        47.4         49.3
 9  1957 Europe      14.6         66.7
10  1957 Oceania      5.97        70.3
# ... with 50 more rows
…
Use the following:

gapminder %>% 
  filter(year > 1977) %>%
  group_by(continent, year) %>%
  summarize(meanGDPc = mean(gdpPercap), sdGDPc = sd(gdpPercap)) %>%
  arrange(sdGDPc)

# A tibble: 30 x 4
# Groups:   continent [5]
   continent  year meanGDPc sdGDPc
   <fct>     <int>    <dbl>  <dbl>
 1 Oceania    1982   18555.  1304.
 2 Oceania    1987   20448.  2038.
 3 Africa     1987    2283.  2567.
 4 Africa     1992    2282.  2644.
 5 Africa     1997    2379.  2821.
 6 Africa     2002    2599.  2973.
 7 Africa     1982    2482.  3243.
 8 Oceania    1992   20894.  3579.
 9 Africa     2007    3089.  3618.
10 Oceania    1997   24024.  4206.
# ... with 20 more rows
…
Line plots

Thus far weve only learned how to make one kind of plot with ggplot: a scatterplot, which we constructed using geom_scatter(). Sometimes we want to connect the dots in a scatterplot, for example when were interested in visualizing a trend over time. The resulting plot is called a line plot. To make one, simply replace geom_scatter() with geom_line(). For example:

by_year_continent <- gapminder %>%
  mutate(popMil = pop / 1000000) %>%
  group_by(year, continent) %>%
  summarize(totalpopMil = sum(popMil))
by_year

# A tibble: 60 x 3
# Groups:   year [?]
    year continent meanGDPc
   <int> <fct>        <dbl>
 1  1952 Africa       1253.
 2  1952 Americas     4079.
 3  1952 Asia         5195.
 4  1952 Europe       5661.
 5  1952 Oceania     10298.
 6  1957 Africa       1385.
 7  1957 Americas     4616.
 8  1957 Asia         5788.
 9  1957 Europe       6963.
10  1957 Oceania     11599.
# ... with 50 more rows
…
